ISE/sp/isim.log
ISim log file
Running: /home/ise/sp/s_p_tb_isim_beh.exe -intstyle ise -gui -tclbatch isim.cmd -wdb /home/ise/sp/s_p_tb_isim_beh.wdb 
ISim P.20131013 (signature 0xfbc00daa)
----------------------------------------------------------------------
WARNING:Security:42 - Your software subscription period has lapsed. Your current version of Xilinx tools will continue to function, but you no longer qualify for Xilinx software updates or new releases.


----------------------------------------------------------------------
This is a Full version of ISim.
Time resolution is 1 ps
# onerror resume
# wave add /
# run 1000 ns
Simulator is doing circuit initialization process.
Finished circuit initialization process.
Time=              125000, clk=1, rst_n=1, data_in_1=012153524, data_out_1=xxxxxxxxxxxxxxxxxxxxxxxxxxxxxxxxxx, s_p_flag_out=0
Time=              130000, clk=0, rst_n=1, data_in_1=3c0895e81, data_out_1=xxxxxxxxxxxxxxxxxxxxxxxxxxxxxxxxxx, s_p_flag_out=0
Time=              135000, clk=1, rst_n=1, data_in_1=38484d609, data_out_1=xxxxxxxxxxxxxxxxxxxxxxxxxxxxxxxxxx, s_p_flag_out=0
Time=              140000, clk=0, rst_n=1, data_in_1=3b1f05663, data_out_1=xxxxxxxxxxxxxxxxxxxxxxxxxxxxxxxxxx, s_p_flag_out=0
Time=              145000, clk=1, rst_n=1, data_in_1=006b97b0d, data_out_1=xxxxxxxxxxxxxxxxxxxxxxxxxxxxxxxxxx, s_p_flag_out=0
Time=              150000, clk=0, rst_n=1, data_in_1=046df998d, data_out_1=xxxxxxxxxxxxxxxxxxxxxxxxxxxxxxxxxx, s_p_flag_out=0
Time=              155000, clk=1, rst_n=1, data_in_1=3b2c28465, data_out_1=xxxxxxxxxxxxxxxxxxxxxxxxxxxxxxxxxx, s_p_flag_out=0
Time=              160000, clk=0, rst_n=1, data_in_1=389375212, data_out_1=xxxxxxxxxxxxxxxxxxxxxxxxxxxxxxxxxx, s_p_flag_out=0
Time=              165000, clk=1, rst_n=1, data_in_1=000f3e301, data_out_1=xxxxxxxxxxxxxxxxxxxxxxxxxxxxxxxxxx, s_p_flag_out=0
Time=              170000, clk=0, rst_n=1, data_in_1=006d7cd0d, data_out_1=xxxxxxxxxxxxxxxxxxxxxxxxxxxxxxxxxx, s_p_flag_out=0
Time=              175000, clk=1, rst_n=1, data_in_1=03b23f176, data_out_1=xxxxxxxxxxxxxxxxxxxxxxxxxxxxxxxxxx, s_p_flag_out=0
Time=              180000, clk=0, rst_n=1, data_in_1=01e8dcd3d, data_out_1=xxxxxxxxxxxxxxxxxxxxxxxxxxxxxxxxxx, s_p_flag_out=0
Time=              185000, clk=1, rst_n=1, data_in_1=076d457ed, data_out_1=xxxxxxxxxxxxxxxxxxxxxxxxxxxxxxxxxx, s_p_flag_out=0
Time=              190000, clk=0, rst_n=1, data_in_1=0462df78c, data_out_1=xxxxxxxxxxxxxxxxxxxxxxxxxxxxxxxxxx, s_p_flag_out=0
Time=              195000, clk=1, rst_n=1, data_in_1=07cfde9f9, data_out_1=xxxxxxxxxxxxxxxxxxxxxxxxxxxxxxxxxx, s_p_flag_out=0
Time=              200000, clk=0, rst_n=1, data_in_1=3e33724c6, data_out_1=xxxxxxxxxxxxxxxxxxxxxxxxxxxxxxxxxx, s_p_flag_out=0
Stopped at time : 200 ns : File "/home/ise/sp/s_p_tb.v" Line 75
# exit 0
